…
For a while I thought it’d be fun to apply natural language processing (NLP) techniques on artists lyrics - and see what it comes up with, whether the analysis chimes with our experience of listening to the artist.

Picking a rapper would be a good choice, purely because they give us more words than other artists.

I’m going to split this out into a 5 series of blog posts, each focusing on different aspects of NLP.
- Predictive modeling with NLP
- Network structure
- Topic analysis with NLP

## # A tibble: 304 x 4
##    lyrics                                               song        album  year 
##    <chr>                                                <chr>       <chr>  <chr>
##  1 "Aw, yeah (It's like this, like this) It's Eminem b… Infinite    Infin… 1996 
##  2 "Yeah, soul intent, checking in number one, baby th… WEGO Inter… Infin… 1996 
##  3 "Check it out Hey Kyu! It's a broke day but everyth… Its Ok      Infin… 1996 
##  4 "Now what you know about a sweet MC, from the 313 N… 313         Infin… 1996 
##  5 "Tonight, tonight, tonight, tonight, tonight I'm ge… Tonight     Infin… 1996 
##  6 "Maxine! Hello Can I speak to Maxine? Yeah, this is… Maxine      Infin… 1996 
##  7 "Hey yo, what's up, man? Hey yo, you been here all … Open Mic    Infin… 1996 
##  8 "Denaun, what up, man? What up, dawg? You all right… Never 2 Far Infin… 1996 
##  9 "[Angela Workman:] Ain't no one special, special li… Searchin    Infin… 1996 
## 10 "Attention all units, attention all units We have a… Backstabber Infin… 1996 
## # … with 294 more rows
…
