…
book_series_table <- combined_table %>%
  filter(!is.na(`Book series`)) %>% 
  select(-Book) %>% select( `Book series`,everything())

book_table <- combined_table %>% 
  filter(!is.na(Book)) %>% 
  select(-`Book series`,-`No. of installments`)

One last cleanup on the books table

This is our books table

book_series_table

## # A tibble: 120 x 8
##    `Book series`  `Author(s)` `Original langu… `First publishe… `Approximate sa…
##    <chr>          <chr>       <chr>            <chr>            <chr>           
##  1 Harry Potter   J. K. Rowl… English          1997–present     500 million[8][…
##  2 Goosebumps     R. L. Stine English          1992–present     350 million[175]
##  3 Perry Mason    Erle Stanl… English          1933–1973        300 million[176]
##  4 Berenstain Be… Stan and J… English          1962–present     260 million[177]
##  5 Choose Your O… Various au… English          1979–1998        250 million[178]
##  6 Diary of a Wi… Jeff Kinney English          2007–present     250 million[179]
##  7 Sweet Valley … Francine P… English          1983–2003        250 million[180]
##  8 Noddy          Enid Blyton English          1949–present     200 million[181]
##  9 Nancy Drew     Various au… English          1930–present     200 million[182]
## 10 The Railway S… Rev. W. Aw… English          1945–2011        200 million[183]
## # … with 110 more rows, and 3 more variables: Genre <chr>,
## #   No. of installments <chr>, Approximate sales_dbl <dbl>

This is our series table

book_series_table

## # A tibble: 120 x 8
##    `Book series`  `Author(s)` `Original langu… `First publishe… `Approximate sa…
##    <chr>          <chr>       <chr>            <chr>            <chr>           
##  1 Harry Potter   J. K. Rowl… English          1997–present     500 million[8][…
##  2 Goosebumps     R. L. Stine English          1992–present     350 million[175]
##  3 Perry Mason    Erle Stanl… English          1933–1973        300 million[176]
##  4 Berenstain Be… Stan and J… English          1962–present     260 million[177]
##  5 Choose Your O… Various au… English          1979–1998        250 million[178]
##  6 Diary of a Wi… Jeff Kinney English          2007–present     250 million[179]
##  7 Sweet Valley … Francine P… English          1983–2003        250 million[180]
##  8 Noddy          Enid Blyton English          1949–present     200 million[181]
##  9 Nancy Drew     Various au… English          1930–present     200 million[182]
## 10 The Railway S… Rev. W. Aw… English          1945–2011        200 million[183]
## # … with 110 more rows, and 3 more variables: Genre <chr>,
## #   No. of installments <chr>, Approximate sales_dbl <dbl>
…
